INDEX VERSION 1.130+C:\FSD\FSD62\module3\WebApp\.metadata\.plugins\org.eclipse.jdt.core
2071462652.index
2194716159.index
3566089501.index
1227306570.index
585472926.index
3355708150.index
2782998763.index
4278764599.index
743109110.index
1737575566.index
2006079928.index
401767567.index
2889170302.index
3312165055.index
1552878334.index
2256529200.index
3852244655.index
2758576337.index
2653330038.index
